…
``` r
# Find the most and least delayed flight each day
bestworst <- flights_tbl %>%
  group_by(year, month, day) %>%
  select(dep_delay) %>% 
  filter(dep_delay == min(dep_delay) || dep_delay == max(dep_delay))
show_query(bestworst)
## <SQL>
## SELECT `year`, `month`, `day`, `dep_delay`
## FROM (SELECT `year`, `month`, `day`, `dep_delay`, min(`dep_delay`) OVER (PARTITION BY `year`, `month`, `day`) AS `zzz4`, max(`dep_delay`) OVER (PARTITION BY `year`, `month`, `day`) AS `zzz5`
## FROM (SELECT `year` AS `year`, `month` AS `month`, `day` AS `day`, `dep_delay` AS `dep_delay`
## FROM `flights`) `ocnwxrqkac`) `lbyorgahok`
## WHERE (`dep_delay` = `zzz4` OR `dep_delay` = `zzz5`)
bestworst
## Source:   query [824 x 4]
## Database: spark connection master=local[4] app=sparklyr local=TRUE
## Groups: year, month, day
## 
##     year month   day dep_delay
##    <int> <int> <int>     <dbl>
## 1   2013     1     1       853
## 2   2013     1     1       -15
## 3   2013     1     1       -15
## 4   2013     1     9      1301
## 5   2013     1     9       -17
## 6   2013     1    14       -20
## 7   2013     1    14       334
## 8   2013     1    23       -18
## 9   2013     1    23       478
## 10  2013     1    24       -15
## # ... with 814 more rows
```
…
