…
Load the data
=============

Parquet is a column based data format that is also compressed. It is a format often used with Spark. Load the Titanic Parquet data into a local spark cluster.

``` r
# Connect to local spark cluster and load data
sc <- spark_connect(master = "local", version = "2.0.0")
spark_read_parquet(sc, name = "titanic", path = "datainputs/titanic-parquet")
```

    ## Source:   query [891 x 12]
    ## Database: spark connection master=local[4] app=sparklyr local=TRUE
    ## 
    ##    PassengerId Survived Pclass
    ##          <int>    <int>  <int>
    ## 1            1        0      3
    ## 2            2        1      1
    ## 3            3        1      3
    ## 4            4        1      1
    ## 5            5        0      3
    ## 6            6        0      3
    ## 7            7        0      1
    ## 8            8        0      3
    ## 9            9        1      3
    ## 10          10        1      2
    ## # ... with 881 more rows, and 9 more variables: Name <chr>, Sex <chr>,
    ## #   Age <dbl>, SibSp <int>, Parch <int>, Ticket <chr>, Fare <dbl>,
    ## #   Cabin <chr>, Embarked <chr>
…
> Tip: `dplyr` and `sparklyr` both support windows functions, including `ntiles` and `cumsum`.

Suppose we want the lift curve for logistic regression, based on *probabilities*, not hard class prediction. One way to do this is to bring a sample of the data over to R and plot the lift (we will used WVPlots::GainCurvePlot).

``` r
# get the probabilities from sdf_predict()
ml_logistic <- sdf_predict(ml_models[["Logistic"]], test_tbl) %>% 
  select(Survived, prediction, probability)

# Survived is true outcome; prediction is the hard class prediction
# probability is a list of Prob(class 0), Prob(class 1)
ml_logistic
```

    ## Source:   query [219 x 3]
    ## Database: spark connection master=local[4] app=sparklyr local=TRUE
    ## 
    ##    Survived prediction probability
    ##       <dbl>      <dbl>      <list>
    ## 1         0          1   <dbl [2]>
    ## 2         0          0   <dbl [2]>
    ## 3         0          0   <dbl [2]>
    ## 4         0          0   <dbl [2]>
    ## 5         0          0   <dbl [2]>
    ## 6         0          0   <dbl [2]>
    ## 7         0          0   <dbl [2]>
    ## 8         0          0   <dbl [2]>
    ## 9         0          0   <dbl [2]>
    ## 10        0          0   <dbl [2]>
    ## # ... with 209 more rows
…
