These are the class notes (Part 4 of 3) for R for Big Data, a workshop taught at Strata + Hadoop World 2016 NYC. The notes are saved as an R Markdown Notebook. See Part 1, Universal Tools to learn more about how to use R Markdown Notebooks.

Overview

Let's do the same analysis on the Titanic data, using h2o. The work pattern is to load the data into Spark, do some data transformations there, and then do the machine learning in h2o.

Load the data

Load the Titanic Parquet data into a local spark cluster.

# Connect to local spark cluster and load data
sc <- spark_connect(master = "local", version = "2.0.0")
spark_read_parquet(sc, name = "titanic", path = "datainputs/titanic-parquet")

## Source:   query [891 x 12]
## Database: spark connection master=local[4] app=sparklyr local=TRUE
## 
##    PassengerId Survived Pclass
##          <int>    <int>  <int>
## 1            1        0      3
## 2            2        1      1
## 3            3        1      3
## 4            4        1      1
## 5            5        0      3
## 6            6        0      3
## 7            7        0      1
## 8            8        0      3
## 9            9        1      3
## 10          10        1      2
## # ... with 881 more rows, and 9 more variables: Name <chr>, Sex <chr>,
## #   Age <dbl>, SibSp <int>, Parch <int>, Ticket <chr>, Fare <dbl>,
## #   Cabin <chr>, Embarked <chr>
…
